Biostat M280 Homework 4
…
lax_seasonal

## # A tibble: 44 x 3
## # Groups:   year [11]
##     year seasonal       n
##    <int> <chr>      <dbl>
##  1  2003 winter   112214.
##  2  2000 fall     106505.
##  3  2004 summer   120184.
##  4  2006 summer   121791.
##  5  1998 spring    91313.
##  6  2002 summer    96293.
##  7  2005 fall     114098.
##  8  2008 spring   112062.
##  9  2007 fall     119434.
## 10  2000 spring   105273.
## # ... with 34 more rows
…
(c). Visualize and explain weekly effects.

lax_weekly <- flights_tbl %>%
  select(origin, dest, year, dayofweek) %>%
  filter(dest == "LAX" | origin == "LAX") %>%
  filter(year >= 1998 && year <= 2008) %>%
  group_by(year, dayofweek) %>%
  summarise(n = n()) %>%
  arrange(year, dayofweek) %>%
  collect()

lax_weekly 

## # A tibble: 77 x 3
## # Groups:   year [11]
##     year dayofweek      n
##    <int>     <int>  <dbl>
##  1  1998         1 53843.
##  2  1998         2 53740.
##  3  1998         3 53727.
##  4  1998         4 54377.
##  5  1998         5 53378.
##  6  1998         6 47642.
##  7  1998         7 51500.
##  8  1999         1 56214.
##  9  1999         2 56367.
## 10  1999         3 56409.
## # ... with 67 more rows
…
